Topic Modeling | Min Tamang
…
# split into words
by_chapter_word <- by_chapter %>%
  unnest_tokens(word, text)

# find document-word counts
word_counts <- by_chapter_word %>%
  anti_join(stop_words) %>%
  count(document, word, sort = TRUE) %>%
  ungroup()

## Joining, by = "word"

word_counts

## # A tibble: 67,284 x 3
##    document                                                       word         n
##    <chr>                                                          <chr>    <int>
##  1 "Beethoven, a character study\r\nTogether with Wagner's indeb… beethov…    87
##  2 Astronomy for Amateurs_11                                      distance    77
##  3 Astronomy for Amateurs_4                                       sun         66
##  4 Astronomy for Amateurs_9                                       moon        64
##  5 Astronomy for Amateurs_3                                       stars       63
##  6 Astronomy for Amateurs_11                                      sun         58
##  7 Astronomy for Amateurs_8                                       earth       56
##  8 Astronomy for Amateurs_10                                      sun         54
##  9 Astronomy for Amateurs_2                                       stars       53
## 10 The Psychology of Revolution_53                                revolut…    52
## # … with 67,274 more rows
…
# create topic model with LDA function for four books, k = 4
chapters_lda <- LDA(chapters_dtm, k = 4, control = list(seed = 1999))
chapters_lda

## A LDA_VEM topic model with 4 topics.

#per-topic-per-word probabilities : beta
chapter_topics <- tidy(chapters_lda, matrix = "beta")
chapter_topics

## # A tibble: 65,060 x 3
##    topic term           beta
##    <int> <chr>         <dbl>
##  1     1 beethoven 6.55e-135
##  2     2 beethoven 4.39e- 18
##  3     3 beethoven 1.34e-132
##  4     4 beethoven 2.09e-  2
##  5     1 distance  7.99e-  4
##  6     2 distance  9.49e-  5
##  7     3 distance  7.75e-  3
##  8     4 distance  7.62e-  5
##  9     1 sun       8.19e-  5
## 10     2 sun       3.16e-  5
## # … with 65,050 more rows

For example, the term “beethoven” has zero probability of being generated from topics 1, 3, or 4, but it makes up 2% of topic 2.

# top 10 terms in each topic
top_terms <- chapter_topics %>% group_by(topic) %>%
  top_n(10, beta) %>% ungroup() %>%
  arrange(topic, -beta)
top_terms

## # A tibble: 40 x 3
##    topic term          beta
##    <int> <chr>        <dbl>
##  1     1 pirate     0.0117 
##  2     1 pirates    0.0108 
##  3     1 town       0.00865
##  4     1 vessel     0.00851
##  5     1 ship       0.00733
##  6     1 buccaneers 0.00622
##  7     1 time       0.00606
##  8     1 captain    0.00602
##  9     1 spanish    0.00585
## 10     1 people     0.00483
## # … with 30 more rows
…
The topics are clearly associated with the four books.

4.Per-document Classification

#per-document-per-topic probabilities: gamma
chapters_gamma <- tidy(chapters_lda, matrix = "gamma")
chapters_gamma

## # A tibble: 468 x 3
##    document                                                      topic     gamma
##    <chr>                                                         <int>     <dbl>
##  1 "Beethoven, a character study\r\nTogether with Wagner's inde…     1   4.05e-6
##  2 Astronomy for Amateurs_11                                         1   7.54e-6
##  3 Astronomy for Amateurs_4                                          1   9.32e-6
##  4 Astronomy for Amateurs_9                                          1   1.05e-5
##  5 Astronomy for Amateurs_3                                          1   8.14e-6
##  6 Astronomy for Amateurs_8                                          1   8.58e-6
##  7 Astronomy for Amateurs_10                                         1   8.42e-6
##  8 Astronomy for Amateurs_2                                          1   9.93e-6
##  9 The Psychology of Revolution_53                                   1   7.75e-6
## 10 Buccaneers and Pirates of Our Coasts_33                           1  10.00e-1
## # … with 458 more rows

Astronomy for Amateurs_11 document has 0% probability of coming from topic 1(Buccaneers and Pirates of Our Coasts).

#separate out chapter and title
chapters_gamma <- chapters_gamma %>%
  separate(document, c("title", "chapter"), sep= "_", convert = TRUE)
chapters_gamma

## # A tibble: 468 x 4
##    title                                                 chapter topic     gamma
##    <chr>                                                   <int> <int>     <dbl>
##  1 "Beethoven, a character study\r\nTogether with Wagne…      19     1   4.05e-6
##  2 Astronomy for Amateurs                                     11     1   7.54e-6
##  3 Astronomy for Amateurs                                      4     1   9.32e-6
##  4 Astronomy for Amateurs                                      9     1   1.05e-5
##  5 Astronomy for Amateurs                                      3     1   8.14e-6
##  6 Astronomy for Amateurs                                      8     1   8.58e-6
##  7 Astronomy for Amateurs                                     10     1   8.42e-6
##  8 Astronomy for Amateurs                                      2     1   9.93e-6
##  9 The Psychology of Revolution                               53     1   7.75e-6
## 10 Buccaneers and Pirates of Our Coasts                       33     1  10.00e-1
## # … with 458 more rows
…
It appears all of the chapters are uniquely identified as a single topic.

#topic most associated with a chapter 
chapter_classifications <- chapters_gamma %>%
  group_by(title, chapter) %>% top_n(1, gamma) %>%
  ungroup()
chapter_classifications

## # A tibble: 117 x 4
##    title                                chapter topic gamma
##    <chr>                                  <int> <int> <dbl>
##  1 Buccaneers and Pirates of Our Coasts      33     1 1.000
##  2 Buccaneers and Pirates of Our Coasts      11     1 1.000
##  3 Buccaneers and Pirates of Our Coasts      31     1 1.000
##  4 Buccaneers and Pirates of Our Coasts      32     1 0.981
##  5 Buccaneers and Pirates of Our Coasts      30     1 1.000
##  6 Buccaneers and Pirates of Our Coasts      20     1 1.000
##  7 Buccaneers and Pirates of Our Coasts      21     1 1.000
##  8 Buccaneers and Pirates of Our Coasts      23     1 1.000
##  9 Buccaneers and Pirates of Our Coasts      15     1 1.000
## 10 Buccaneers and Pirates of Our Coasts      16     1 1.000
## # … with 107 more rows
…
## # A tibble: 0 x 5
## # … with 5 variables: title <chr>, chapter <int>, topic <int>, gamma <dbl>,
## #   consensus <chr>

Indeed, no chapters were mis-classified.

5.By Word Assignments: Augment

# see which words are assigned to which topic with augment function
assignments <- augment(chapters_lda, data = chapters_dtm)
assignments

## # A tibble: 67,284 x 4
##    document                                                 term    count .topic
##    <chr>                                                    <chr>   <dbl>  <dbl>
##  1 "Beethoven, a character study\r\nTogether with Wagner's… beetho…    87      4
##  2 "Beethoven, a character study\r\nTogether with Wagner's… beetho…    45      4
##  3 "Beethoven, a character study\r\nTogether with Wagner's… beetho…    44      4
##  4 "Beethoven, a character study\r\nTogether with Wagner's… beetho…    43      4
##  5 "Beethoven, a character study\r\nTogether with Wagner's… beetho…    43      4
##  6 "Beethoven, a character study\r\nTogether with Wagner's… beetho…    39      4
##  7 "Beethoven, a character study\r\nTogether with Wagner's… beetho…    38      4
##  8 "Beethoven, a character study\r\nTogether with Wagner's… beetho…    28      4
##  9 "Beethoven, a character study\r\nTogether with Wagner's… beetho…    25      4
## 10 "Beethoven, a character study\r\nTogether with Wagner's… beetho…    24      4
## # … with 67,274 more rows

# combine assignments with true book titles to find incorrect classification
assignments <- assignments %>% 
  separate(document, c("title", "chapter"), sep = "_", convert = TRUE)%>%
  inner_join(book_topics, by = c(".topic" = "topic"))
assignments

## # A tibble: 67,284 x 6
##    title                   chapter term   count .topic consensus                
##    <chr>                     <int> <chr>  <dbl>  <dbl> <chr>                    
##  1 "Beethoven, a characte…      19 beeth…    87      4 "Beethoven, a character …
##  2 "Beethoven, a characte…      13 beeth…    45      4 "Beethoven, a character …
##  3 "Beethoven, a characte…       8 beeth…    44      4 "Beethoven, a character …
##  4 "Beethoven, a characte…       1 beeth…    43      4 "Beethoven, a character …
##  5 "Beethoven, a characte…       6 beeth…    43      4 "Beethoven, a character …
##  6 "Beethoven, a characte…       2 beeth…    39      4 "Beethoven, a character …
##  7 "Beethoven, a characte…      10 beeth…    38      4 "Beethoven, a character …
##  8 "Beethoven, a characte…       5 beeth…    28      4 "Beethoven, a character …
##  9 "Beethoven, a characte…      11 beeth…    25      4 "Beethoven, a character …
## 10 "Beethoven, a characte…      14 beeth…    24      4 "Beethoven, a character …
## # … with 67,274 more rows
…
Almost all words were correctly assigned to each topic.

# most commonly mistaken words
wrong_words <- assignments %>% filter(title!= consensus)
wrong_words

## # A tibble: 45 x 6
##    title                   chapter term   count .topic consensus                
##    <chr>                     <int> <chr>  <dbl>  <dbl> <chr>                    
##  1 Buccaneers and Pirates…      32 moon       3      3 Astronomy for Amateurs   
##  2 Buccaneers and Pirates…      32 stars      2      3 Astronomy for Amateurs   
##  3 "Beethoven, a characte…       4 revol…     1      2 The Psychology of Revolu…
##  4 The Psychology of Revo…      45 capta…     1      1 Buccaneers and Pirates o…
##  5 The Psychology of Revo…      45 town       2      1 Buccaneers and Pirates o…
##  6 Buccaneers and Pirates…      32 heave…     1      3 Astronomy for Amateurs   
##  7 The Psychology of Revo…      45 vessel     1      1 Buccaneers and Pirates o…
##  8 "Beethoven, a characte…       4 armies     2      2 The Psychology of Revolu…
##  9 Buccaneers and Pirates…       1 1          1      4 "Beethoven, a character …
## 10 "Beethoven, a characte…       4 bonap…     3      2 The Psychology of Revolu…
## # … with 35 more rows

wrong_words %>% count(title, consensus, term , wt = count) %>% 
  ungroup() %>% arrange(-n)

## # A tibble: 45 x 4
##    title                                    consensus               term       n
##    <chr>                                    <chr>                   <chr>  <dbl>
##  1 "Beethoven, a character study\r\nTogeth… The Psychology of Revo… france     6
##  2 "Beethoven, a character study\r\nTogeth… The Psychology of Revo… bonap…     3
##  3 Buccaneers and Pirates of Our Coasts     Astronomy for Amateurs  moon       3
##  4 "Beethoven, a character study\r\nTogeth… The Psychology of Revo… armies     2
##  5 "Beethoven, a character study\r\nTogeth… The Psychology of Revo… louis      2
##  6 Buccaneers and Pirates of Our Coasts     Astronomy for Amateurs  stars      2
##  7 The Psychology of Revolution             Buccaneers and Pirates… town       2
##  8 "Beethoven, a character study\r\nTogeth… The Psychology of Revo… equal…     1
##  9 "Beethoven, a character study\r\nTogeth… The Psychology of Revo… gover…     1
## 10 "Beethoven, a character study\r\nTogeth… The Psychology of Revo… illus…     1
## # … with 35 more rows
…
